…
``` r
#Creating a subset of the data with columns "month", "flow", and "extreme_type"
flow_subset <- flow_sample %>%
    select(month, flow, extreme_type) %>%
    na.omit() #removing rows with missing values

print(flow_subset)
```

    ## # A tibble: 216 x 3
    ##    month  flow extreme_type
    ##    <dbl> <dbl> <chr>       
    ##  1     7   314 maximum     
    ##  2     6   230 maximum     
    ##  3     6   264 maximum     
    ##  4     8   174 maximum     
    ##  5     6   232 maximum     
    ##  6     6   214 maximum     
    ##  7     6   236 maximum     
    ##  8     6   309 maximum     
    ##  9     6   174 maximum     
    ## 10     6   345 maximum     
    ## # ... with 206 more rows
…
