Mini Data-Analysis Deliverable 1
…
Next, it would be valuable to explore the relation between month and extreme flow event. Particularly I would like to find during which months the maximum flow usually occurs, and during which months the minimum flow occurs.

Creating new tibble holding a subset of flow_sample data

To achieve this, first, a tibble should be created that only holds the variables flow, month, and extreme_type and does not have any missing data. Missing data will be removed after creating a subset to preserve as much data as possible. For example, if missing data were removed before creating a subset, it may result in a loss of entire rows of data where only day or sym variables are missing. This would limit the analysis of the relation between month and flow.

#Creating a subset of the data with columns "month", "flow", and "extreme_type"
flow_subset <- flow_sample %>%
    select(month, flow, extreme_type) %>%
    na.omit() #removing rows with missing values

print(flow_subset)

## # A tibble: 216 x 3
##    month  flow extreme_type
##    <dbl> <dbl> <chr>       
##  1     7   314 maximum     
##  2     6   230 maximum     
##  3     6   264 maximum     
##  4     8   174 maximum     
##  5     6   232 maximum     
##  6     6   214 maximum     
##  7     6   236 maximum     
##  8     6   309 maximum     
##  9     6   174 maximum     
## 10     6   345 maximum     
## # ... with 206 more rows
…
